User Guide: 1 Debugging ggplots
…
This can make it tedious to analyse how these functions work, as one may need to add print statements to their definitions to see the data. I wrote the “debug” stats and geoms as tools to help in the development of my packages ‘ggpmisc’ and ‘ggspectra’, and as a way of learning myself how data are passed around within the different components of a ggplot object when it is printed.

Data input to geometries

Data pass through a statistics before being received by a geometry. However, many geometries, like geom_point() and geom_line() use by default stat_identity() which simply relays the unmodified data to the geometries.

The debug geometries and statistics in package ‘gginnards’ by default do not add any graphical element to the plot but instead they make visible the data as received as their input.

The geometry geom_debug() uses stat_identity() by default. Here the same data as rendered by geom_point() is printed as a tibble to the R console. We can see that the columns are named according to the aesthetics the variables in the user-supplied data have been mapped. In the case of colour, the levels of the factor have been replaced by colour definitions. Columns PANEL and group have been also added.

ggplot(mpg, aes(cyl, hwy, colour = factor(cyl))) + 
  geom_point() +
  geom_debug()

## # A tibble: 234 x 5
##    colour      x     y PANEL group
##    <chr>   <dbl> <dbl> <fct> <int>
##  1 #F8766D     4    29 1         1
##  2 #F8766D     4    29 1         1
##  3 #F8766D     4    31 1         1
##  4 #F8766D     4    30 1         1
##  5 #00BFC4     6    26 1         3
##  6 #00BFC4     6    26 1         3
##  7 #00BFC4     6    27 1         3
##  8 #F8766D     4    26 1         1
##  9 #F8766D     4    25 1         1
## 10 #F8766D     4    28 1         1
## # ... with 224 more rows
…
As shown above an important use of geom_debug() it to display the data returned by a statistic and received as input by geometries. Not all extensions to ‘ggplot2’ document all the computed variables returned by statistics. In other cases like in the next example, the values returned will depend on the arguments passed. While in the previous example the statistic returned a data frame with one row per group, here the returned data frame has 160 rows. The data are by default plotted as a line with a confidence band.

ggplot(my.data, aes(x, y, colour = group)) + 
  geom_point() + 
  stat_smooth(method = "lm", formula = y ~ poly(x, 2)) +
  stat_smooth(method = "lm", formula = y ~ poly(x, 2), geom = "debug")

## # A tibble: 160 x 9
##    colour      x      y    ymin   ymax     se flipped_aes PANEL group
##    <chr>   <dbl>  <dbl>   <dbl>  <dbl>  <dbl> <lgl>       <fct> <int>
##  1 #F8766D  1    23456. -26311. 73223. 24738. FALSE       1         1
##  2 #F8766D  2.24 18462. -28860. 65784. 23523. FALSE       1         1
##  3 #F8766D  3.48 13883. -31095. 58861. 22358. FALSE       1         1
##  4 #F8766D  4.72  9719. -33018. 52456. 21244. FALSE       1         1
##  5 #F8766D  5.96  5970. -34632. 46573. 20183. FALSE       1         1
##  6 #F8766D  7.20  2637. -35941. 41215. 19176. FALSE       1         1
##  7 #F8766D  8.44  -281. -36948. 36386. 18227. FALSE       1         1
##  8 #F8766D  9.68 -2783. -37657. 32090. 17335. FALSE       1         1
##  9 #F8766D 10.9  -4871. -38072. 28331. 16504. FALSE       1         1
## 10 #F8766D 12.2  -6543. -38197. 25112. 15735. FALSE       1         1
## # ... with 150 more rows
…
Using as default geom “null” allows to add the debug stats for the side effect of console output without altering the rendering of the plot when there is at least one other plot layer.

Because of the way ‘ggplot2’ works, the values are listed to the console at the time when the ggplot object is printed. As shown here, no other geom or stat is required, however in the remaining examples we add geom_point() to make the data also visible in the plot.

ggplot(my.data, aes(x, y)) + 
  stat_debug_group()

## [1] "Input 'data' to 'compute_group()':"
## # A tibble: 100 x 4
##        x       y PANEL group
##    <dbl>   <dbl> <fct> <int>
##  1     1 -27205. 1        -1
##  2     2 -14243. 1        -1
##  3     3  45791. 1        -1
##  4     4  53731. 1        -1
##  5     5  -8029. 1        -1
##  6     6 102864. 1        -1
##  7     7 -18547. 1        -1
##  8     8  13081. 1        -1
##  9     9  79924. 1        -1
## 10    10 -44711. 1        -1
## # ... with 90 more rows
…
In the absence of facets or groups we get the printout of a single data frame, which is similar to that returned by geom_debug(). Without grouping, group is set to -1 for all observations.

ggplot(my.data, aes(x, y)) + 
  geom_point() + 
  stat_debug_group()

## [1] "Input 'data' to 'compute_group()':"
## # A tibble: 100 x 4
##        x       y PANEL group
##    <dbl>   <dbl> <fct> <int>
##  1     1 -27205. 1        -1
##  2     2 -14243. 1        -1
##  3     3  45791. 1        -1
##  4     4  53731. 1        -1
##  5     5  -8029. 1        -1
##  6     6 102864. 1        -1
##  7     7 -18547. 1        -1
##  8     8  13081. 1        -1
##  9     9  79924. 1        -1
## 10    10 -44711. 1        -1
## # ... with 90 more rows
…
In a plot with no grouping, there is no difference in the data input for compute_panel() and compute_group() functions (this applies in general to ggplot statistics).

ggplot(my.data, aes(x, y)) + 
  geom_point() + 
  stat_debug_panel()

## [1] "Input 'data' to 'compute_panel()':"
## # A tibble: 100 x 4
##        x       y PANEL group
##    <dbl>   <dbl> <fct> <int>
##  1     1 -27205. 1        -1
##  2     2 -14243. 1        -1
##  3     3  45791. 1        -1
##  4     4  53731. 1        -1
##  5     5  -8029. 1        -1
##  6     6 102864. 1        -1
##  7     7 -18547. 1        -1
##  8     8  13081. 1        -1
##  9     9  79924. 1        -1
## 10    10 -44711. 1        -1
## # ... with 90 more rows
…
By mapping the colour aesthetic we create a grouping. In the case, compute_group() is called with the data subsetted by group, and a separate data frame is displayed for each call compute_group(), corresponding each to a level in the mapped factor. In this case group takes as values positive consecutive integers. As a factor was mapped to colour, colour is encoded as a factor.

ggplot(my.data, aes(x, y, colour = group)) + 
  geom_point() + 
  stat_debug_group()

## [1] "Input 'data' to 'compute_group()':"
## # A tibble: 50 x 5
##        x       y colour PANEL group
##    <dbl>   <dbl> <chr>  <fct> <int>
##  1     1 -27205. A      1         1
##  2     3  45791. A      1         1
##  3     5  -8029. A      1         1
##  4     7 -18547. A      1         1
##  5     9  79924. A      1         1
##  6    11  -2824. A      1         1
##  7    13 -78017. A      1         1
##  8    15 -74281. A      1         1
##  9    17   9904. A      1         1
## 10    19 -94023. A      1         1
## # ... with 40 more rows
## [1] "Input 'data' to 'compute_group()':"
## # A tibble: 50 x 5
##        x       y colour PANEL group
##    <dbl>   <dbl> <chr>  <fct> <int>
##  1     2 -14243. B      1         2
##  2     4  53731. B      1         2
##  3     6 102864. B      1         2
##  4     8  13081. B      1         2
##  5    10 -44711. B      1         2
##  6    12  23840. B      1         2
##  7    14  75602. B      1         2
##  8    16 104677. B      1         2
##  9    18 -68747. B      1         2
## 10    20 -39230. B      1         2
## # ... with 40 more rows
…
Without facets, we still have only one panel.

ggplot(my.data, aes(x, y, colour = group)) + 
  geom_point() + 
  stat_debug_panel()

## [1] "Input 'data' to 'compute_panel()':"
## # A tibble: 100 x 5
##        x       y colour PANEL group
##    <dbl>   <dbl> <chr>  <fct> <int>
##  1     1 -27205. A      1         1
##  2     2 -14243. B      1         2
##  3     3  45791. A      1         1
##  4     4  53731. B      1         2
##  5     5  -8029. A      1         1
##  6     6 102864. B      1         2
##  7     7 -18547. A      1         1
##  8     8  13081. B      1         2
##  9     9  79924. A      1         1
## 10    10 -44711. B      1         2
## # ... with 90 more rows
…
When we map the same factor to a different aesthetic the data remain similar, except for the column named after the aesthetic, in this case shape.

ggplot(my.data, aes(x, y, shape = group)) + 
  geom_point() + 
  stat_debug_group()

## [1] "Input 'data' to 'compute_group()':"
## # A tibble: 50 x 5
##        x       y shape PANEL group
##    <dbl>   <dbl> <chr> <fct> <int>
##  1     1 -27205. A     1         1
##  2     3  45791. A     1         1
##  3     5  -8029. A     1         1
##  4     7 -18547. A     1         1
##  5     9  79924. A     1         1
##  6    11  -2824. A     1         1
##  7    13 -78017. A     1         1
##  8    15 -74281. A     1         1
##  9    17   9904. A     1         1
## 10    19 -94023. A     1         1
## # ... with 40 more rows
## [1] "Input 'data' to 'compute_group()':"
## # A tibble: 50 x 5
##        x       y shape PANEL group
##    <dbl>   <dbl> <chr> <fct> <int>
##  1     2 -14243. B     1         2
##  2     4  53731. B     1         2
##  3     6 102864. B     1         2
##  4     8  13081. B     1         2
##  5    10 -44711. B     1         2
##  6    12  23840. B     1         2
##  7    14  75602. B     1         2
##  8    16 104677. B     1         2
##  9    18 -68747. B     1         2
## 10    20 -39230. B     1         2
## # ... with 40 more rows
…
with grouping and facets, within each panel the compute_group() function is called for each group, in total four times.

ggplot(my.data, aes(x, y, colour = group)) + 
  geom_point() + 
  stat_debug_group() +
  facet_wrap(~block)

## [1] "Input 'data' to 'compute_group()':"
## # A tibble: 25 x 5
##        x       y colour PANEL group
##    <dbl>   <dbl> <chr>  <fct> <int>
##  1     1 -27205. A      1         1
##  2     5  -8029. A      1         1
##  3     9  79924. A      1         1
##  4    13 -78017. A      1         1
##  5    17   9904. A      1         1
##  6    21  40551. A      1         1
##  7    25   9950. A      1         1
##  8    29 -27902. A      1         1
##  9    33 109170. A      1         1
## 10    37  40859. A      1         1
## # ... with 15 more rows
## [1] "Input 'data' to 'compute_group()':"
## # A tibble: 25 x 5
##        x       y colour PANEL group
##    <dbl>   <dbl> <chr>  <fct> <int>
##  1     2 -14243. B      1         2
##  2     6 102864. B      1         2
##  3    10 -44711. B      1         2
##  4    14  75602. B      1         2
##  5    18 -68747. B      1         2
##  6    22  10961. B      1         2
##  7    26   3102. B      1         2
##  8    30 -59669. B      1         2
##  9    34  10203. B      1         2
## 10    38 104296. B      1         2
## # ... with 15 more rows
## [1] "Input 'data' to 'compute_group()':"
## # A tibble: 25 x 5
##        x       y colour PANEL group
##    <dbl>   <dbl> <chr>  <fct> <int>
##  1     3  45791. A      2         1
##  2     7 -18547. A      2         1
##  3    11  -2824. A      2         1
##  4    15 -74281. A      2         1
##  5    19 -94023. A      2         1
##  6    23  12150. A      2         1
##  7    27  23485. A      2         1
##  8    31  39727. A      2         1
##  9    35  98482. A      2         1
## 10    39  76003. A      2         1
## # ... with 15 more rows
## [1] "Input 'data' to 'compute_group()':"
## # A tibble: 25 x 5
##        x        y colour PANEL group
##    <dbl>    <dbl> <chr>  <fct> <int>
##  1     4  53731.  B      2         2
##  2     8  13081.  B      2         2
##  3    12  23840.  B      2         2
##  4    16 104677.  B      2         2
##  5    20 -39230.  B      2         2
##  6    24  52254.  B      2         2
##  7    28  41669.  B      2         2
##  8    32  76039.  B      2         2
##  9    36     74.0 B      2         2
## 10    40 146451.  B      2         2
## # ... with 15 more rows
…
Controlling the debug output

In the examples above we have demonstrated the use of the statistics and geometries using default arguments. Here we show examples of generation of other types of debug output.

Display debug output on the plot

Differently to geom_debug() where the data can only be printed to the console, stat_debug_group() and stat_debug_panel() return data that can be plotted using a geometry. If we use as geometries "label" or "text" a debug summary is added to the plot itself, we can also pass other arguments valid for the geometry used, in this case vjust.

ggplot(my.data, aes(x, y, shape = group)) + 
  geom_point() + 
  stat_debug_group(geom = "label", vjust = c(-0.5,1.5))

## [1] "Input 'data' to 'compute_group()':"
## # A tibble: 50 x 5
##        x       y shape PANEL group
##    <dbl>   <dbl> <chr> <fct> <int>
##  1     1 -27205. A     1         1
##  2     3  45791. A     1         1
##  3     5  -8029. A     1         1
##  4     7 -18547. A     1         1
##  5     9  79924. A     1         1
##  6    11  -2824. A     1         1
##  7    13 -78017. A     1         1
##  8    15 -74281. A     1         1
##  9    17   9904. A     1         1
## 10    19 -94023. A     1         1
## # ... with 40 more rows
## [1] "Input 'data' to 'compute_group()':"
## # A tibble: 50 x 5
##        x       y shape PANEL group
##    <dbl>   <dbl> <chr> <fct> <int>
##  1     2 -14243. B     1         2
##  2     4  53731. B     1         2
##  3     6 102864. B     1         2
##  4     8  13081. B     1         2
##  5    10 -44711. B     1         2
##  6    12  23840. B     1         2
##  7    14  75602. B     1         2
##  8    16 104677. B     1         2
##  9    18 -68747. B     1         2
## 10    20 -39230. B     1         2
## # ... with 40 more rows
…
This approach is of limited use except for highlighting groups and panels, possible when learning or teaching how ggplots are assembled.

ggplot(my.data, aes(x, y, colour = group)) + 
  geom_point() + 
  stat_debug_panel(geom = "label", aes(label = stat(paste("PANEL: ", PANEL)))) +
  facet_wrap(~block)

## [1] "Input 'data' to 'compute_panel()':"
## # A tibble: 50 x 5
##        x       y colour PANEL group
##    <dbl>   <dbl> <chr>  <fct> <int>
##  1     1 -27205. A      1         1
##  2     2 -14243. B      1         2
##  3     5  -8029. A      1         1
##  4     6 102864. B      1         2
##  5     9  79924. A      1         1
##  6    10 -44711. B      1         2
##  7    13 -78017. A      1         1
##  8    14  75602. B      1         2
##  9    17   9904. A      1         1
## 10    18 -68747. B      1         2
## # ... with 40 more rows
## [1] "Input 'data' to 'compute_panel()':"
## # A tibble: 50 x 5
##        x       y colour PANEL group
##    <dbl>   <dbl> <chr>  <fct> <int>
##  1     3  45791. A      2         1
##  2     4  53731. B      2         2
##  3     7 -18547. A      2         1
##  4     8  13081. B      2         2
##  5    11  -2824. A      2         1
##  6    12  23840. B      2         2
##  7    15 -74281. A      2         1
##  8    16 104677. B      2         2
##  9    19 -94023. A      2         1
## 10    20 -39230. B      2         2
## # ... with 40 more rows
…
Of course to see all the returned variables, we can use geom_debug().

ggplot(my.data, aes(x, y, shape = group)) + 
  geom_point() + 
  stat_debug_group(geom = "debug")

## [1] "Input 'data' to 'compute_group()':"
## # A tibble: 50 x 5
##        x       y shape PANEL group
##    <dbl>   <dbl> <chr> <fct> <int>
##  1     1 -27205. A     1         1
##  2     3  45791. A     1         1
##  3     5  -8029. A     1         1
##  4     7 -18547. A     1         1
##  5     9  79924. A     1         1
##  6    11  -2824. A     1         1
##  7    13 -78017. A     1         1
##  8    15 -74281. A     1         1
##  9    17   9904. A     1         1
## 10    19 -94023. A     1         1
## # ... with 40 more rows
## [1] "Input 'data' to 'compute_group()':"
## # A tibble: 50 x 5
##        x       y shape PANEL group
##    <dbl>   <dbl> <chr> <fct> <int>
##  1     2 -14243. B     1         2
##  2     4  53731. B     1         2
##  3     6 102864. B     1         2
##  4     8  13081. B     1         2
##  5    10 -44711. B     1         2
##  6    12  23840. B     1         2
##  7    14  75602. B     1         2
##  8    16 104677. B     1         2
##  9    18 -68747. B     1         2
## 10    20 -39230. B     1         2
## # ... with 40 more rows
…
